{
  "project_info": {
    "project_number": "276348519748",
    "project_id": "dohcfcmtest",
    "storage_bucket": "dohcfcmtest.appspot.com"
  },
  "client": [
    {
      "client_info": {
        "mobilesdk_app_id": "1:276348519748:android:84c15092ea9dddb6f48311",
        "android_client_info": {
          "package_name": "com.example.doh_homepage_app"
        }
      },
      "oauth_client": [
        {
          "client_id": "276348519748-r32eis2padni00fq6vrju2dd65u9k33f.apps.googleusercontent.com",
          "client_type": 3
        }
      ],
      "api_key": [
        {
          "current_key": "AIzaSyA2gvlo4tfGWHwyRTru-A1UpxazoLdCUYg"
        }
      ],
      "services": {
        "appinvite_service": {
          "other_platform_oauth_client": [
            {
              "client_id": "276348519748-r32eis2padni00fq6vrju2dd65u9k33f.apps.googleusercontent.com",
              "client_type": 3
            }
          ]
        }
      }
    }
  ],
  "configuration_version": "1"
}